{
    "GemFormatVersion": 4,
    "Uuid": "0ea36030feab41f28bf8be7427a5c707",
    "Name": "TDInputCaptureComponent",
    "DisplayName": "TDInputCaptureComponent",
    "Version": "0.1.0",
    "Summary": "A short description of my Gem.",
    "Tags": ["Untagged"],
    "IconPath": "preview.png",
    "Modules": [
        {
            "Type": "GameModule"
        }
    ]
}
